…
Finding unique observations

``` r
zillow_df %>% 
  select(zip_code) %>% 
  distinct()
```

    ## # A tibble: 149 × 1
    ##    zip_code
    ##       <dbl>
    ##  1    11368
    ##  2    11385
    ##  3    11208
    ##  4    11236
    ##  5    10467
    ##  6    11373
    ##  7    11226
    ##  8    11207
    ##  9    10025
    ## 10    11214
    ## # ℹ 139 more rows

``` r
zillow_df %>% 
  select(neighborhood) %>% 
  distinct()
```

    ## # A tibble: 43 × 1
    ##    neighborhood              
    ##    <chr>                     
    ##  1 West Queens               
    ##  2 West Central Queens       
    ##  3 East New York and New Lots
    ##  4 Canarsie and Flatlands    
    ##  5 Bronx Park and Fordham    
    ##  6 Flatbush                  
    ##  7 Upper West Side           
    ##  8 Southwest Brooklyn        
    ##  9 Mid-Island                
    ## 10 Sunset Park               
    ## # ℹ 33 more rows

``` r
anti_join(zipcodes_df, rentalprice_df, by = "zip_code") %>%
  select(zip_code, county) %>%
  distinct()
```

    ## # A tibble: 171 × 2
    ##    zip_code county
    ##       <dbl> <chr> 
    ##  1    10464 Bronx 
    ##  2    10474 Bronx 
    ##  3    10475 Bronx 
    ##  4    10499 Bronx 
    ##  5    10550 Bronx 
    ##  6    10704 Bronx 
    ##  7    10705 Bronx 
    ##  8    10803 Bronx 
    ##  9    11202 Kings 
    ## 10    11224 Kings 
    ## # ℹ 161 more rows
…
